[ 
  {
    "rule_type": "constraint",
    "tbname": "GP02",
    "param": "ucoord",
    "rms": 0.0,
    "coeffs": {
      "GP02P1_U": 1.0,
      "GP02U1__": -1.0
    }
  },
  {
    "rule_type": "constraint",
    "tbname": "GP02",
    "param": "ucoord",
    "rms": 0.0,
    "coeffs": {
      "GP02P1_V": 1.0,
      "GP02U1__": -1.0
    }
  },
  {
    "rule_type": "constraint",
    "tbname": "GP02",
    "param": "ucoord",
    "rms": 0.0,
    "coeffs": {
      "GP02P2_U": 1.0,
      "GP02X1__": -1.0
    }
  },
  {
    "rule_type": "constraint",
    "tbname": "GP02",
    "param": "ucoord",
    "rms": 0.0,
    "coeffs": {
      "GP02P2_V": 1.0,
      "GP02Y1__": -1.0
    }
  },
  
  
  {
    "rule_type": "constraint",
    "tbname": "GP03",
    "param": "ucoord",
    "rms": 0.0,
    "coeffs": {
      "GP03P1_U": 1.0,
      "GP03U1__": -1.0
    }
  },
  {
    "rule_type": "constraint",
    "tbname": "GP03",
    "param": "ucoord",
    "rms": 0.0,
    "coeffs": {
      "GP03P1_V": 1.0,
      "GP03U1__": -1.0
    }
  },
  {
    "rule_type": "constraint",
    "tbname": "GP03",
    "param": "ucoord",
    "rms": 0.0,
    "coeffs": {
      "GP03P2_U": 1.0,
      "GP03X1__": -1.0
    }
  },
  {
    "rule_type": "constraint",
    "tbname": "GP03",
    "param": "ucoord",
    "rms": 0.0,
    "coeffs": {
      "GP03P2_V": 1.0,
      "GP03Y1__": -1.0
    }
  }
]
