[ 
  {
    "rule_type": "dzone",
    "tbname": "GP02U1__",
    "ratio": {
      "xcenter": 0.0,
      "ycenter": 0.0,
      "zcenter": 0.0
    }
  },
  {
    "rule_type": "dzone",
    "tbname": "GP02V1__",
    "ratio": {
      "xcenter": 0.0,
      "ycenter": 0.0,
      "zcenter": 0.0
    }
  },
  {
    "rule_type": "dzone",
    "tbname": "GP02X1__",
    "ratio": {
      "xcenter": 0.0,
      "ycenter": 0.0,
      "zcenter": 0.0
    }
  },
  {
    "rule_type": "dzone",
    "tbname": "GP02Y1__",
    "ratio": {
      "xcenter": 0.0,
      "ycenter": 0.0,
      "zcenter": 0.0
    }
  },
  
  {
    "rule_type": "dzone",
    "tbname": "GP03U1__",
    "ratio": {
      "xcenter": 0.0,
      "ycenter": 0.0,
      "zcenter": 0.0
    }
  },
  {
    "rule_type": "dzone",
    "tbname": "GP03V1__",
    "ratio": {
      "xcenter": 0.0,
      "ycenter": 0.0,
      "zcenter": 0.0
    }
  },
  {
    "rule_type": "dzone",
    "tbname": "GP03X1__",
    "ratio": {
      "xcenter": 0.0,
      "ycenter": 0.0,
      "zcenter": 0.0
    }
  },
  {
    "rule_type": "dzone",
    "tbname": "GP03Y1__",
    "ratio": {
      "xcenter": 0.0,
      "ycenter": 0.0,
      "zcenter": 0.0
    }
  }
]
